<svg width="20" height="12" viewBox="0 0 20 12" fill="none" xmlns="http://www.w3.org/2000/svg">
<rect y="10" width="20" height="2" fill="white"/>
<rect y="5" width="20" height="2" fill="white"/>
<rect width="20" height="2" fill="white"/>
</svg>
