<svg width="13" height="22" viewBox="0 0 13 22" fill="none" xmlns="http://www.w3.org/2000/svg">
<path fill-rule="evenodd" clip-rule="evenodd" d="M12.4142 11L1.70711 21.7071L0.292894 20.2929L9.58579 11L0.292895 1.70712L1.70711 0.292907L12.4142 11Z" fill="white"/>
</svg>
