<svg width="28" height="28" viewBox="0 0 28 28" fill="none" xmlns="http://www.w3.org/2000/svg">
<path fill-rule="evenodd" clip-rule="evenodd" d="M0 0H13.26V14.5L28 14.55V28H0V0ZM11.76 16V1.5H1.5V26.5H26.5V16.05L13.25 16H11.76Z" fill="#B4D678"/>
<path fill-rule="evenodd" clip-rule="evenodd" d="M15 0H28V13H15V0ZM26.5 11.5V1.5H16.5V11.5H26.5Z" fill="#B4D678"/>
</svg>
