<svg width="28" height="28" viewBox="0 0 28 28" fill="none" xmlns="http://www.w3.org/2000/svg">
<path fill-rule="evenodd" clip-rule="evenodd" d="M10 10H18V18H10V10ZM16.5 16.5V11.5H11.5V16.5H16.5Z" fill="#B4D678"/>
<path fill-rule="evenodd" clip-rule="evenodd" d="M23 5H5V23H23V5ZM21.5 6.5V21.5H6.5V6.5H21.5Z" fill="#B4D678"/>
<path fill-rule="evenodd" clip-rule="evenodd" d="M28 0H0V28H28V0ZM26.5 1.5V26.5H1.5V1.5H26.5Z" fill="#B4D678"/>
</svg>
