<svg
    width='32'
    height='32'
    viewBox='0 0 32 32'
    stroke='#777'
    stroke-width='2'
    stroke-linecap='square'
    fill='transparent'
    xmlns='http://www.w3.org/2000/svg'>

    <rect
        x='2'
        y='2'
        width='18'
        height='18'
        fill='#777'
        />

    <path
        d='
            M6 25 L25 25 L25 6
            M12 30 L30 30 L30 12
        '
        />

</svg>
