<svg width="13" height="22" viewBox="0 0 13 22" fill="none" xmlns="http://www.w3.org/2000/svg">
<path fill-rule="evenodd" clip-rule="evenodd" d="M12.4141 11.0001L1.70696 21.7072L0.292742 20.293L9.58564 11.0001L0.292743 1.70718L1.70696 0.292968L12.4141 11.0001Z" fill="white" transform="rotate(180)"/>
</svg>
